// Jest Snapshot v1, https://goo.gl/fbAQLP

exports[`AppAbout component Matches the snapshot 1`] = `
<div
  className="about-container d-flex row align-items-center justify-content-between px-5 m-0"
>
  <div
    className="col-7"
  >
    <span
      className="about_title"
    >
      About your product
    </span>
    <div
      className="about_title-text pt-4"
    >
      Lorem ipsum dolor sit amet, consectetur adipisicing elit. Nobis facilis fuga, illo at. Natus eos, 
      <br />
       eligendi illum rerum omnis porro ex, magni, explicabo veniam incidunt in quam sapiente ut 
      <br />
      ipsum.
      <br />
      <br />
      Pariatur iure ab sunt nesciunt, quibusdam odio iste cumque itaque, ipsa vel exercitationem
      <br />
      ullam quos aut nostrum cupiditate fuga quaerat quam animi dolores. Sequi itaque, unde per
      <br />
      ferendis nemo debitis dolor.
    </div>
  </div>
  <div
    className="about_title-logo"
  />
</div>
`;
