// Jest Snapshot v1, https://goo.gl/fbAQLP

exports[`AppHeader component Matches the snapshot 1`] = `
<div
  className="header-container d-flex row align-items-center justify-content-between px-5 m-0"
>
  <div
    className="col-6"
  >
    <span
      className="product_title"
    >
      Product name
    </span>
    <div
      className="product_title-text pt-4"
    >
      <i
        className="fas fa-check"
      />
       Put on this page information about your product 
      <br />
      <i
        className="fas fa-check"
      />
       A detailed description of your product 
      <br />
      <i
        className="fas fa-check"
      />
       Tell us about the advantages and merits 
      <br />
      <i
        className="fas fa-check"
      />
       Associate the page with the payment system
    </div>
  </div>
  <div
    className="product_title-logo"
  />
</div>
`;
